…
tibbles vs data.frames:

* print
* subsetting with `$`: no partial matching, warning if access to non-existing column
* when creating, never change type of input, never change column names, never create rownames


```r
colnames(who) <- gsub("newrel", "new_rel", colnames(who))
who
```

```
# A tibble: 7,240 x 60
       country  iso2  iso3  year new_sp_m014 new_sp_m1524 new_sp_m2534
         <chr> <chr> <chr> <int>       <int>        <int>        <int>
 1 Afghanistan    AF   AFG  1980          NA           NA           NA
 2 Afghanistan    AF   AFG  1981          NA           NA           NA
 3 Afghanistan    AF   AFG  1982          NA           NA           NA
 4 Afghanistan    AF   AFG  1983          NA           NA           NA
 5 Afghanistan    AF   AFG  1984          NA           NA           NA
 6 Afghanistan    AF   AFG  1985          NA           NA           NA
 7 Afghanistan    AF   AFG  1986          NA           NA           NA
 8 Afghanistan    AF   AFG  1987          NA           NA           NA
 9 Afghanistan    AF   AFG  1988          NA           NA           NA
10 Afghanistan    AF   AFG  1989          NA           NA           NA
# ... with 7,230 more rows, and 53 more variables: new_sp_m3544 <int>,
#   new_sp_m4554 <int>, new_sp_m5564 <int>, new_sp_m65 <int>,
#   new_sp_f014 <int>, new_sp_f1524 <int>, new_sp_f2534 <int>,
#   new_sp_f3544 <int>, new_sp_f4554 <int>, new_sp_f5564 <int>,
#   new_sp_f65 <int>, new_sn_m014 <int>, new_sn_m1524 <int>,
#   new_sn_m2534 <int>, new_sn_m3544 <int>, new_sn_m4554 <int>,
#   new_sn_m5564 <int>, new_sn_m65 <int>, new_sn_f014 <int>,
#   new_sn_f1524 <int>, new_sn_f2534 <int>, new_sn_f3544 <int>,
#   new_sn_f4554 <int>, new_sn_f5564 <int>, new_sn_f65 <int>,
…
<img src="images/tidyr.jpg" width="600px" style="display: block; margin: auto;" />


```r
## wide to long
gather(who)
```

```
# A tibble: 434,400 x 2
       key       value
     <chr>       <chr>
 1 country Afghanistan
 2 country Afghanistan
 3 country Afghanistan
 4 country Afghanistan
 5 country Afghanistan
 6 country Afghanistan
 7 country Afghanistan
 8 country Afghanistan
 9 country Afghanistan
10 country Afghanistan
# ... with 434,390 more rows
```

```r
who_long <- gather(who, group, cases, -country, -iso2, -iso3, -year)
who_long <- na.omit(who_long)

who_long
```

```
# A tibble: 76,046 x 6
       country  iso2  iso3  year       group cases
         <chr> <chr> <chr> <int>       <chr> <int>
 1 Afghanistan    AF   AFG  1997 new_sp_m014     0
 2 Afghanistan    AF   AFG  1998 new_sp_m014    30
 3 Afghanistan    AF   AFG  1999 new_sp_m014     8
 4 Afghanistan    AF   AFG  2000 new_sp_m014    52
 5 Afghanistan    AF   AFG  2001 new_sp_m014   129
 6 Afghanistan    AF   AFG  2002 new_sp_m014    90
 7 Afghanistan    AF   AFG  2003 new_sp_m014   127
 8 Afghanistan    AF   AFG  2004 new_sp_m014   139
 9 Afghanistan    AF   AFG  2005 new_sp_m014   151
10 Afghanistan    AF   AFG  2006 new_sp_m014   193
# ... with 76,036 more rows
```

```r
## long to wide
spread(who_long, key = group, value = cases)
```

```
# A tibble: 3,484 x 60
       country  iso2  iso3  year new_ep_f014 new_ep_f1524 new_ep_f2534
 *       <chr> <chr> <chr> <int>       <int>        <int>        <int>
 1 Afghanistan    AF   AFG  1997          NA           NA           NA
 2 Afghanistan    AF   AFG  1998          NA           NA           NA
 3 Afghanistan    AF   AFG  1999          NA           NA           NA
 4 Afghanistan    AF   AFG  2000          NA           NA           NA
 5 Afghanistan    AF   AFG  2001          NA           NA           NA
 6 Afghanistan    AF   AFG  2002          NA           NA           NA
 7 Afghanistan    AF   AFG  2003          NA           NA           NA
 8 Afghanistan    AF   AFG  2004          NA           NA           NA
 9 Afghanistan    AF   AFG  2005          NA           NA           NA
10 Afghanistan    AF   AFG  2006          NA           NA           NA
# ... with 3,474 more rows, and 53 more variables: new_ep_f3544 <int>,
#   new_ep_f4554 <int>, new_ep_f5564 <int>, new_ep_f65 <int>,
#   new_ep_m014 <int>, new_ep_m1524 <int>, new_ep_m2534 <int>,
#   new_ep_m3544 <int>, new_ep_m4554 <int>, new_ep_m5564 <int>,
#   new_ep_m65 <int>, new_rel_f014 <int>, new_rel_f1524 <int>,
#   new_rel_f2534 <int>, new_rel_f3544 <int>, new_rel_f4554 <int>,
#   new_rel_f5564 <int>, new_rel_f65 <int>, new_rel_m014 <int>,
#   new_rel_m1524 <int>, new_rel_m2534 <int>, new_rel_m3544 <int>,
#   new_rel_m4554 <int>, new_rel_m5564 <int>, new_rel_m65 <int>,
…
```r
## separate
separate(who_long, col = group, sep = "_", into = c("new", "diag", "patient"))
```

```
# A tibble: 76,046 x 8
       country  iso2  iso3  year   new  diag patient cases
 *       <chr> <chr> <chr> <int> <chr> <chr>   <chr> <int>
 1 Afghanistan    AF   AFG  1997   new    sp    m014     0
 2 Afghanistan    AF   AFG  1998   new    sp    m014    30
 3 Afghanistan    AF   AFG  1999   new    sp    m014     8
 4 Afghanistan    AF   AFG  2000   new    sp    m014    52
 5 Afghanistan    AF   AFG  2001   new    sp    m014   129
 6 Afghanistan    AF   AFG  2002   new    sp    m014    90
 7 Afghanistan    AF   AFG  2003   new    sp    m014   127
 8 Afghanistan    AF   AFG  2004   new    sp    m014   139
 9 Afghanistan    AF   AFG  2005   new    sp    m014   151
10 Afghanistan    AF   AFG  2006   new    sp    m014   193
# ... with 76,036 more rows
```
…
### Single table verbs

#### Sort table rows with arrange


Sort rows according to **one variable**.


```r
arrange(who_long, cases)
```

```
# A tibble: 76,046 x 9
       country  iso2  iso3  year       group   new  diag patient cases
         <chr> <chr> <chr> <int>       <chr> <chr> <chr>   <chr> <int>
 1 Afghanistan    AF   AFG  1997 new_sp_m014   new    sp    m014     0
 2     Albania    AL   ALB  1995 new_sp_m014   new    sp    m014     0
 3     Albania    AL   ALB  1997 new_sp_m014   new    sp    m014     0
 4     Albania    AL   ALB  1999 new_sp_m014   new    sp    m014     0
 5     Albania    AL   ALB  2002 new_sp_m014   new    sp    m014     0
 6     Albania    AL   ALB  2003 new_sp_m014   new    sp    m014     0
 7     Albania    AL   ALB  2005 new_sp_m014   new    sp    m014     0
 8     Albania    AL   ALB  2007 new_sp_m014   new    sp    m014     0
 9     Albania    AL   ALB  2009 new_sp_m014   new    sp    m014     0
10     Albania    AL   ALB  2010 new_sp_m014   new    sp    m014     0
# ... with 76,036 more rows
```

Sort rows according to **several variables**. Sorting variables are separated by a comma, order of variables matters.


```r
arrange(who_long, cases, year)
```

```
# A tibble: 76,046 x 9
        country  iso2  iso3  year        group   new  diag patient cases
          <chr> <chr> <chr> <int>        <chr> <chr> <chr>   <chr> <int>
 1 Cook Islands    CK   COK  1980  new_sp_m014   new    sp    m014     0
 2 Cook Islands    CK   COK  1980 new_sp_m2534   new    sp   m2534     0
 3 Cook Islands    CK   COK  1980 new_sp_m5564   new    sp   m5564     0
 4 Cook Islands    CK   COK  1980   new_sp_m65   new    sp     m65     0
 5 Cook Islands    CK   COK  1980  new_sp_f014   new    sp    f014     0
 6 Cook Islands    CK   COK  1980 new_sp_f2534   new    sp   f2534     0
 7 Cook Islands    CK   COK  1980 new_sp_f3544   new    sp   f3544     0
 8 Cook Islands    CK   COK  1980 new_sp_f5564   new    sp   f5564     0
 9 Cook Islands    CK   COK  1980   new_sp_f65   new    sp     f65     0
10 Cook Islands    CK   COK  1981  new_sp_m014   new    sp    m014     0
# ... with 76,036 more rows
```

```r
arrange(who_long, year, cases)
```

```
# A tibble: 76,046 x 9
        country  iso2  iso3  year        group   new  diag patient cases
          <chr> <chr> <chr> <int>        <chr> <chr> <chr>   <chr> <int>
 1 Cook Islands    CK   COK  1980  new_sp_m014   new    sp    m014     0
 2 Cook Islands    CK   COK  1980 new_sp_m2534   new    sp   m2534     0
 3 Cook Islands    CK   COK  1980 new_sp_m5564   new    sp   m5564     0
 4 Cook Islands    CK   COK  1980   new_sp_m65   new    sp     m65     0
 5 Cook Islands    CK   COK  1980  new_sp_f014   new    sp    f014     0
 6 Cook Islands    CK   COK  1980 new_sp_f2534   new    sp   f2534     0
 7 Cook Islands    CK   COK  1980 new_sp_f3544   new    sp   f3544     0
 8 Cook Islands    CK   COK  1980 new_sp_f5564   new    sp   f5564     0
 9 Cook Islands    CK   COK  1980   new_sp_f65   new    sp     f65     0
10 Cook Islands    CK   COK  1980 new_sp_m3544   new    sp   m3544     1
# ... with 76,036 more rows
```

To sort rows in **decreasing** order, use `desc`.


```r
arrange(who_long, desc(cases), year)
```

```
# A tibble: 76,046 x 9
   country  iso2  iso3  year         group   new  diag patient  cases
     <chr> <chr> <chr> <int>         <chr> <chr> <chr>   <chr>  <int>
 1   India    IN   IND  2007  new_sn_m3544   new    sn   m3544 250051
 2   India    IN   IND  2007  new_sn_f3544   new    sn   f3544 148811
 3   China    CN   CHN  2013   new_rel_m65   new   rel     m65 124476
 4   China    CN   CHN  2013 new_rel_m5564   new   rel   m5564 112558
 5   India    IN   IND  2007  new_ep_m3544   new    ep   m3544 105825
 6   India    IN   IND  2007  new_ep_f3544   new    ep   f3544 101015
 7   China    CN   CHN  2013 new_rel_m4554   new   rel   m4554 100297
 8   India    IN   IND  2009  new_sp_m3544   new    sp   m3544  90830
 9   India    IN   IND  2008  new_sp_m3544   new    sp   m3544  90498
10   India    IN   IND  2010  new_sp_m3544   new    sp   m3544  90440
# ... with 76,036 more rows
```



#### Filter rows  

`filter` is equivalent to `base::subset`


```r
filter(who_long, year <= 2000)
```

```
# A tibble: 13,288 x 9
       country  iso2  iso3  year       group   new  diag patient cases
         <chr> <chr> <chr> <int>       <chr> <chr> <chr>   <chr> <int>
 1 Afghanistan    AF   AFG  1997 new_sp_m014   new    sp    m014     0
 2 Afghanistan    AF   AFG  1998 new_sp_m014   new    sp    m014    30
 3 Afghanistan    AF   AFG  1999 new_sp_m014   new    sp    m014     8
 4 Afghanistan    AF   AFG  2000 new_sp_m014   new    sp    m014    52
 5     Albania    AL   ALB  1995 new_sp_m014   new    sp    m014     0
 6     Albania    AL   ALB  1997 new_sp_m014   new    sp    m014     0
 7     Albania    AL   ALB  1998 new_sp_m014   new    sp    m014     1
 8     Albania    AL   ALB  1999 new_sp_m014   new    sp    m014     0
 9     Albania    AL   ALB  2000 new_sp_m014   new    sp    m014     2
10     Algeria    DZ   DZA  1997 new_sp_m014   new    sp    m014   659
# ... with 13,278 more rows
```

Multiple predicates separated by comma considered as `&`.


```r
filter(who_long, year <= 2000, country == "Afghanistan") 
```

```
# A tibble: 56 x 9
       country  iso2  iso3  year        group   new  diag patient cases
         <chr> <chr> <chr> <int>        <chr> <chr> <chr>   <chr> <int>
 1 Afghanistan    AF   AFG  1997  new_sp_m014   new    sp    m014     0
 2 Afghanistan    AF   AFG  1998  new_sp_m014   new    sp    m014    30
 3 Afghanistan    AF   AFG  1999  new_sp_m014   new    sp    m014     8
 4 Afghanistan    AF   AFG  2000  new_sp_m014   new    sp    m014    52
 5 Afghanistan    AF   AFG  1997 new_sp_m1524   new    sp   m1524    10
 6 Afghanistan    AF   AFG  1998 new_sp_m1524   new    sp   m1524   129
 7 Afghanistan    AF   AFG  1999 new_sp_m1524   new    sp   m1524    55
 8 Afghanistan    AF   AFG  2000 new_sp_m1524   new    sp   m1524   228
 9 Afghanistan    AF   AFG  1997 new_sp_m2534   new    sp   m2534     6
10 Afghanistan    AF   AFG  1998 new_sp_m2534   new    sp   m2534   128
# ... with 46 more rows
```

```r
## same as 
## filter(who_long, year <= 2000 & country == "Afghanistan") 
```

Or predicates separated by `|`.


```r
filter(who_long, country == "Palau" | cases == 230)
```

```
# A tibble: 411 x 9
   country  iso2  iso3  year       group   new  diag patient cases
     <chr> <chr> <chr> <int>       <chr> <chr> <chr>   <chr> <int>
 1  Angola    AO   AGO  2001 new_sp_m014   new    sp    m014   230
 2   Palau    PW   PLW  1995 new_sp_m014   new    sp    m014     0
 3   Palau    PW   PLW  1996 new_sp_m014   new    sp    m014     0
 4   Palau    PW   PLW  1997 new_sp_m014   new    sp    m014     0
 5   Palau    PW   PLW  1999 new_sp_m014   new    sp    m014     0
 6   Palau    PW   PLW  2002 new_sp_m014   new    sp    m014     1
 7   Palau    PW   PLW  2003 new_sp_m014   new    sp    m014     0
 8   Palau    PW   PLW  2006 new_sp_m014   new    sp    m014     1
 9   Palau    PW   PLW  2007 new_sp_m014   new    sp    m014     0
10   Palau    PW   PLW  2009 new_sp_m014   new    sp    m014     0
# ... with 401 more rows
```

Usefull filter functions:

- `between`: shortcut for `x >= left & x <= right`


```r
filter(who_long, between(year, 1998, 2000))
```

```
# A tibble: 6,786 x 9
       country  iso2  iso3  year       group   new  diag patient cases
         <chr> <chr> <chr> <int>       <chr> <chr> <chr>   <chr> <int>
 1 Afghanistan    AF   AFG  1998 new_sp_m014   new    sp    m014    30
 2 Afghanistan    AF   AFG  1999 new_sp_m014   new    sp    m014     8
 3 Afghanistan    AF   AFG  2000 new_sp_m014   new    sp    m014    52
 4     Albania    AL   ALB  1998 new_sp_m014   new    sp    m014     1
 5     Albania    AL   ALB  1999 new_sp_m014   new    sp    m014     0
 6     Albania    AL   ALB  2000 new_sp_m014   new    sp    m014     2
 7     Algeria    DZ   DZA  1999 new_sp_m014   new    sp    m014    40
 8     Algeria    DZ   DZA  2000 new_sp_m014   new    sp    m014    59
 9     Andorra    AD   AND  1998 new_sp_m014   new    sp    m014     0
10     Andorra    AD   AND  1999 new_sp_m014   new    sp    m014     0
# ... with 6,776 more rows
```
…
####  Columns selection and renaming


`select` allows to keep variables in a tibble. 


```r
select(who_long, country, cases, year) ## select columns by name
```

```
# A tibble: 76,046 x 3
       country cases  year
 *       <chr> <int> <int>
 1 Afghanistan     0  1997
 2 Afghanistan    30  1998
 3 Afghanistan     8  1999
 4 Afghanistan    52  2000
 5 Afghanistan   129  2001
 6 Afghanistan    90  2002
 7 Afghanistan   127  2003
 8 Afghanistan   139  2004
 9 Afghanistan   151  2005
10 Afghanistan   193  2006
# ... with 76,036 more rows
```

```r
select(who_long, 2, 5) ## select columns by position
```

```
# A tibble: 76,046 x 2
    iso2       group
 * <chr>       <chr>
 1    AF new_sp_m014
 2    AF new_sp_m014
 3    AF new_sp_m014
 4    AF new_sp_m014
 5    AF new_sp_m014
 6    AF new_sp_m014
 7    AF new_sp_m014
 8    AF new_sp_m014
 9    AF new_sp_m014
10    AF new_sp_m014
# ... with 76,036 more rows
```

```r
select(who_long, country:year) ## select columns by range on name
```

```
# A tibble: 76,046 x 4
       country  iso2  iso3  year
 *       <chr> <chr> <chr> <int>
 1 Afghanistan    AF   AFG  1997
 2 Afghanistan    AF   AFG  1998
 3 Afghanistan    AF   AFG  1999
 4 Afghanistan    AF   AFG  2000
 5 Afghanistan    AF   AFG  2001
 6 Afghanistan    AF   AFG  2002
 7 Afghanistan    AF   AFG  2003
 8 Afghanistan    AF   AFG  2004
 9 Afghanistan    AF   AFG  2005
10 Afghanistan    AF   AFG  2006
# ... with 76,036 more rows
```

```r
select(who_long, country, number = cases, year) ## select and rename column
```

```
# A tibble: 76,046 x 3
       country number  year
 *       <chr>  <int> <int>
 1 Afghanistan      0  1997
 2 Afghanistan     30  1998
 3 Afghanistan      8  1999
 4 Afghanistan     52  2000
 5 Afghanistan    129  2001
 6 Afghanistan     90  2002
 7 Afghanistan    127  2003
 8 Afghanistan    139  2004
 9 Afghanistan    151  2005
10 Afghanistan    193  2006
# ... with 76,036 more rows
```

Columns preceded by `-` are dropped.


```r
select(who_long, -group)
```

```
# A tibble: 76,046 x 8
       country  iso2  iso3  year   new  diag patient cases
 *       <chr> <chr> <chr> <int> <chr> <chr>   <chr> <int>
 1 Afghanistan    AF   AFG  1997   new    sp    m014     0
 2 Afghanistan    AF   AFG  1998   new    sp    m014    30
 3 Afghanistan    AF   AFG  1999   new    sp    m014     8
 4 Afghanistan    AF   AFG  2000   new    sp    m014    52
 5 Afghanistan    AF   AFG  2001   new    sp    m014   129
 6 Afghanistan    AF   AFG  2002   new    sp    m014    90
 7 Afghanistan    AF   AFG  2003   new    sp    m014   127
 8 Afghanistan    AF   AFG  2004   new    sp    m014   139
 9 Afghanistan    AF   AFG  2005   new    sp    m014   151
10 Afghanistan    AF   AFG  2006   new    sp    m014   193
# ... with 76,036 more rows
```

Special functions usefull in select:

- `starts_with`, `ends_with`, `contains`: stars, ends or contains a string
- `matches`: matches a regular expression


```r
select(who_long, starts_with("p")) ## starts_with string
```

```
# A tibble: 76,046 x 1
   patient
 *   <chr>
 1    m014
 2    m014
 3    m014
 4    m014
 5    m014
 6    m014
 7    m014
 8    m014
 9    m014
10    m014
# ... with 76,036 more rows
```

```r
select(who_long, contains("iso")) ## contains string
```

```
# A tibble: 76,046 x 2
    iso2  iso3
 * <chr> <chr>
 1    AF   AFG
 2    AF   AFG
 3    AF   AFG
 4    AF   AFG
 5    AF   AFG
 6    AF   AFG
 7    AF   AFG
 8    AF   AFG
 9    AF   AFG
10    AF   AFG
# ... with 76,036 more rows
```

```r
select(who_long, matches("r$")) ## regexp
```

```
# A tibble: 76,046 x 1
    year
 * <int>
 1  1997
 2  1998
 3  1999
 4  2000
 5  2001
 6  2002
 7  2003
 8  2004
 9  2005
10  2006
# ... with 76,036 more rows
```

Scoped selection and renaming. 

- `select_all` / `rename_all`: all variables
- `select_if` / `rename_if`: variables matching a predicate
- `select_at` / `rename_at`: som variables



```r
select_if(who_long, is.numeric)
```

```
# A tibble: 76,046 x 2
    year cases
 * <int> <int>
 1  1997     0
 2  1998    30
 3  1999     8
 4  2000    52
 5  2001   129
 6  2002    90
 7  2003   127
 8  2004   139
 9  2005   151
10  2006   193
# ... with 76,036 more rows
```



```r
rename_all(who_long, toupper) ## rename all variables to upper case
```

```
# A tibble: 76,046 x 9
       COUNTRY  ISO2  ISO3  YEAR       GROUP   NEW  DIAG PATIENT CASES
 *       <chr> <chr> <chr> <int>       <chr> <chr> <chr>   <chr> <int>
 1 Afghanistan    AF   AFG  1997 new_sp_m014   new    sp    m014     0
 2 Afghanistan    AF   AFG  1998 new_sp_m014   new    sp    m014    30
 3 Afghanistan    AF   AFG  1999 new_sp_m014   new    sp    m014     8
 4 Afghanistan    AF   AFG  2000 new_sp_m014   new    sp    m014    52
 5 Afghanistan    AF   AFG  2001 new_sp_m014   new    sp    m014   129
 6 Afghanistan    AF   AFG  2002 new_sp_m014   new    sp    m014    90
 7 Afghanistan    AF   AFG  2003 new_sp_m014   new    sp    m014   127
 8 Afghanistan    AF   AFG  2004 new_sp_m014   new    sp    m014   139
 9 Afghanistan    AF   AFG  2005 new_sp_m014   new    sp    m014   151
10 Afghanistan    AF   AFG  2006 new_sp_m014   new    sp    m014   193
# ... with 76,036 more rows
```


#### Create new columns

`mutate` adds new columns, `transmute` adds new columns and drop existing.


```r
mutate(who_long, log_cases = log(1 + cases))
```

```
# A tibble: 76,046 x 10
       country  iso2  iso3  year       group   new  diag patient cases
         <chr> <chr> <chr> <int>       <chr> <chr> <chr>   <chr> <int>
 1 Afghanistan    AF   AFG  1997 new_sp_m014   new    sp    m014     0
 2 Afghanistan    AF   AFG  1998 new_sp_m014   new    sp    m014    30
 3 Afghanistan    AF   AFG  1999 new_sp_m014   new    sp    m014     8
 4 Afghanistan    AF   AFG  2000 new_sp_m014   new    sp    m014    52
 5 Afghanistan    AF   AFG  2001 new_sp_m014   new    sp    m014   129
 6 Afghanistan    AF   AFG  2002 new_sp_m014   new    sp    m014    90
 7 Afghanistan    AF   AFG  2003 new_sp_m014   new    sp    m014   127
 8 Afghanistan    AF   AFG  2004 new_sp_m014   new    sp    m014   139
 9 Afghanistan    AF   AFG  2005 new_sp_m014   new    sp    m014   151
10 Afghanistan    AF   AFG  2006 new_sp_m014   new    sp    m014   193
# ... with 76,036 more rows, and 1 more variables: log_cases <dbl>
```
…
